<?xml version="1.0" standalone="no"?>
<!DOCTYPE svg PUBLIC "-//W3C//DTD SVG 20010904//EN"
 "http://www.w3.org/TR/2001/REC-SVG-20010904/DTD/svg10.dtd">
<svg version="1.0" xmlns="http://www.w3.org/2000/svg"
 width="2000.000000pt" height="2000.000000pt" viewBox="0 0 2000.000000 2000.000000"
 preserveAspectRatio="xMidYMid meet">

<g transform="translate(0.000000,2000.000000) scale(0.100000,-0.100000)"
fill="#000000" stroke="none">
<path d="M1 19834 c1 -93 4 -158 6 -144 3 14 8 29 12 33 6 6 718 -80 729 -88
3 -3 -80 -838 -84 -843 -1 -2 -69 6 -151 17 -238 33 -363 43 -440 36 l-73 -7
0 -249 0 -249 28 6 c83 20 133 76 161 182 9 33 16 42 29 38 9 -2 181 -26 382
-52 201 -26 369 -50 373 -54 5 -4 3 -36 -3 -71 -53 -307 -240 -546 -512 -657
-100 -40 -194 -61 -331 -74 l-127 -11 0 -925 c0 -619 4 -930 11 -938 7 -8 7
-14 -1 -19 -5 -3 -10 -17 -10 -31 0 -21 4 -24 39 -24 22 0 43 5 46 10 4 6 11
8 16 5 13 -9 11 9 -3 25 -11 12 -10 12 4 1 10 -7 18 -20 18 -27 0 -13 13 -19
33 -15 5 1 6 -3 3 -8 -3 -5 3 -20 14 -34 25 -31 26 -44 3 -26 -16 13 -17 12
-4 -4 10 -12 17 -15 24 -8 7 7 4 18 -9 33 l-19 22 26 -20 c15 -10 25 -22 24
-25 -2 -3 12 -18 31 -34 19 -16 34 -34 34 -42 0 -7 4 -13 8 -13 4 0 16 -13 25
-30 10 -16 15 -30 12 -30 -3 0 3 -10 15 -22 18 -20 25 -39 21 -60 0 -5 3 -8 9
-8 15 0 58 -149 71 -245 19 -144 -9 -318 -75 -458 -59 -128 -171 -255 -309
-348 l-57 -40 0 -1554 c0 -855 3 -1555 8 -1555 4 0 32 7 62 15 68 18 80 19 80
1 0 -7 70 -312 156 -677 85 -365 177 -758 204 -874 27 -115 108 -462 180 -770
72 -308 157 -675 190 -815 32 -140 72 -309 88 -376 l28 -120 -225 -53 c-124
-29 -341 -79 -481 -112 -140 -33 -263 -62 -272 -65 -17 -5 -18 -81 -18 -1407
l0 -1402 29 62 c77 161 218 243 420 243 167 0 300 -50 394 -149 99 -103 137
-220 116 -351 -19 -122 -78 -220 -171 -283 -244 -167 -640 -75 -759 177 l-29
61 1 -320 c1 -176 4 -309 6 -295 3 14 8 29 12 33 7 7 718 -80 729 -88 3 -3
-80 -838 -84 -843 -1 -2 -69 6 -151 17 -238 33 -363 43 -440 36 l-73 -7 0
-249 0 -249 28 6 c83 20 133 76 161 182 9 33 16 42 29 38 9 -3 181 -26 382
-52 201 -26 369 -50 373 -54 5 -4 3 -36 -3 -71 -53 -307 -240 -546 -512 -657
-100 -40 -194 -61 -330 -74 l-128 -11 0 -824 0 -823 3048 0 3047 1 80 124 c44
69 83 125 87 125 3 0 8 -6 11 -12 2 -7 7 -10 11 -6 4 3 3 15 -2 25 -9 16 24
71 191 329 111 170 216 331 232 356 l30 47 195 -126 c226 -146 609 -394 1032
-670 l298 -193 1044 0 1044 0 73 78 c176 187 248 363 235 577 -7 124 -26 196
-79 305 -59 121 -178 241 -297 298 -154 75 -296 96 -457 68 -177 -31 -295 -89
-403 -197 -92 -93 -173 -240 -194 -350 l-6 -36 -73 14 c-39 9 -73 17 -75 18
-7 7 40 145 73 215 107 222 307 395 540 467 83 25 103 27 260 28 181 0 215 -6
350 -62 203 -85 387 -274 466 -478 43 -112 60 -203 60 -326 0 -202 -63 -372
-201 -538 -25 -31 -49 -62 -54 -68 -6 -10 940 -13 4713 -13 l4721 0 0 463 c0
281 -4 468 -10 477 -5 8 -10 11 -10 7 0 -12 -60 31 -97 70 -18 18 -37 50 -42
71 -15 53 -13 157 3 196 20 48 70 100 116 121 l40 18 0 209 0 208 -41 0 c-39
0 -41 1 -66 57 -41 89 -44 226 -9 364 15 57 47 154 71 216 l45 111 0 619 0
619 -52 31 c-29 17 -71 37 -93 44 -52 17 -205 17 -275 0 -54 -13 -149 -56
-193 -86 -43 -29 -136 -128 -150 -159 -35 -74 -36 -72 55 -72 94 0 147 -21
191 -74 50 -59 71 -186 45 -272 -17 -57 -88 -133 -146 -155 -67 -26 -184 -24
-237 4 -268 141 -168 619 169 816 153 89 355 144 569 154 l117 6 0 800 0 800
-92 96 c-107 111 -169 218 -214 366 -24 80 -27 106 -27 235 0 117 4 160 21
225 42 156 138 315 256 422 l56 52 0 4933 c0 3167 -4 4938 -10 4948 -5 8 -10
11 -10 7 0 -12 -60 31 -97 70 -18 18 -37 50 -42 71 -15 53 -13 157 3 196 20
48 70 100 116 121 l40 18 0 209 0 208 -41 0 c-39 0 -41 1 -66 57 -41 89 -44
226 -9 364 15 57 47 154 71 216 l45 111 0 619 0 619 -52 31 c-78 46 -123 57
-223 57 -104 0 -177 -15 -258 -55 -76 -37 -91 -49 -159 -115 -55 -55 -82 -97
-90 -138 -3 -18 4 -20 77 -21 91 -1 144 -23 188 -75 50 -59 71 -186 45 -272
-17 -57 -88 -133 -146 -155 -67 -26 -184 -24 -237 4 -270 142 -165 628 178
822 43 24 106 54 140 67 l62 23 -1429 0 c-1049 1 -1452 -2 -1512 -11 -63 -9
-103 -9 -180 1 -76 9 -478 12 -1760 9 l-1660 -3 149 -633 c81 -349 147 -636
145 -638 -10 -9 -2474 -582 -2479 -576 -4 4 -46 176 -94 382 -48 206 -145 620
-215 920 l-127 545 -812 3 -812 2 5 -67 c3 -38 8 -126 11 -198 6 -146 8 -197
35 -765 10 -222 18 -405 17 -406 -11 -8 -167 -11 -167 -4 0 6 -9 10 -21 10
-11 0 -18 -4 -15 -9 6 -9 -74 -15 -461 -32 -212 -10 -265 -10 -278 1 -12 10
-15 10 -15 -2 0 -12 -103 -19 -615 -43 -338 -16 -616 -27 -618 -24 -2 2 -14
216 -26 474 -12 259 -24 502 -27 540 -9 149 -24 442 -24 483 l0 42 -1147 0
-1146 0 62 -31 c35 -17 93 -59 129 -93 201 -187 273 -465 191 -732 -43 -138
-109 -251 -273 -464 -250 -325 -289 -387 -334 -513 -29 -84 -33 -194 -9 -269
14 -45 14 -46 -7 -52 -11 -3 -36 -6 -54 -6 -31 0 -35 4 -59 57 -21 46 -27 77
-31 159 -6 128 22 243 110 459 157 386 191 495 209 669 24 245 -40 496 -158
614 -119 119 -306 151 -499 86 -135 -45 -276 -173 -308 -279 -6 -20 -2 -21 76
-21 94 0 147 -21 191 -74 53 -62 72 -194 42 -281 -20 -57 -87 -124 -145 -146
-65 -26 -182 -23 -235 4 -270 142 -165 628 178 822 43 24 106 54 140 67 l62
23 -1475 -4 c-811 -2 -1509 -5 -1550 -5 -41 -1 -171 2 -287 5 l-213 7 1 -168z
m16419 -155 c179 -23 326 -43 328 -45 2 -1 -11 -139 -28 -306 -17 -166 -36
-356 -42 -420 -7 -70 -16 -118 -22 -118 -6 0 -72 9 -146 19 -406 58 -567 48
-692 -40 -48 -35 -82 -120 -82 -204 0 -134 70 -210 203 -222 132 -12 214 48
250 185 10 36 15 41 34 37 23 -5 231 -33 307 -42 25 -3 135 -17 245 -32 l200
-27 -3 -44 c-10 -167 -109 -375 -239 -505 -178 -177 -398 -258 -708 -258 -509
-1 -902 209 -1048 558 -44 105 -62 207 -61 350 1 325 121 574 351 725 152 100
313 143 540 144 l151 1 27 135 c34 176 28 164 73 157 20 -3 183 -25 362 -48z
m-2970 -2260 c0 -269 -3 -339 -12 -333 -10 6 -10 4 0 -7 18 -19 15 -28 -8 -22
-11 3 -20 10 -20 17 0 6 -5 4 -11 -4 -8 -12 -12 -12 -16 -2 -4 10 -8 10 -19 2
-7 -7 -18 -9 -24 -5 -18 11 0 25 33 26 30 1 31 1 7 8 -14 5 -33 4 -42 -1 -12
-5 -18 -5 -18 2 0 5 6 10 13 11 9 0 9 2 0 5 -7 3 -21 0 -32 -6 -19 -10 -21 -8
-22 17 0 24 -1 25 -9 8 -7 -19 -9 -18 -19 8 -6 15 -14 28 -18 28 -5 1 -21 3
-37 5 -15 1 -31 6 -35 10 -3 4 4 4 16 1 13 -3 25 -2 27 2 3 4 -4 7 -14 8 -26
2 -70 33 -70 49 0 7 -10 19 -22 25 l-21 12 21 -37 c12 -20 17 -36 12 -36 -6 0
-10 5 -10 11 0 6 -6 9 -14 6 -15 -6 -60 35 -50 46 3 3 -4 3 -15 0 -17 -4 -19
-8 -9 -17 7 -6 11 -10 9 -9 -2 2 -9 -2 -16 -7 -8 -7 -11 -4 -10 10 1 11 4 23
8 26 9 9 -12 34 -29 34 -7 0 -18 -8 -23 -17 -6 -11 -11 -13 -11 -5 0 7 -5 10
-12 6 -7 -4 -8 -3 -4 4 4 7 1 12 -6 12 -10 0 -9 3 2 10 9 6 20 5 30 -3 12 -9
13 -9 3 3 -8 9 -9 18 -3 25 7 8 5 12 -5 12 -8 0 -15 -3 -15 -6 0 -4 -10 -12
-22 -20 l-23 -14 20 23 20 23 -21 -7 c-25 -8 -38 14 -29 48 5 18 3 17 -10 -4
-15 -23 -16 -24 -12 -3 3 12 -1 27 -9 34 -8 6 -14 19 -15 28 0 11 -2 12 -6 3
-3 -7 3 -22 13 -33 9 -10 13 -19 8 -19 -5 0 -18 14 -27 30 -10 17 -15 30 -11
30 3 0 -1 12 -11 26 -9 14 -14 32 -11 40 3 8 2 13 -3 10 -9 -6 -26 47 -36 109
-3 22 -8 55 -11 73 l-5 32 361 0 360 0 0 -341z m-3250 38 c161 -53 275 -123
377 -230 167 -176 245 -370 244 -612 -1 -294 -126 -506 -467 -791 -233 -194
-261 -283 -214 -674 11 -91 20 -170 20 -177 0 -11 -146 -31 -155 -21 -3 3 -17
103 -31 224 -33 283 -30 366 15 458 40 81 121 170 257 282 305 251 426 469
410 739 -7 124 -26 196 -79 305 -59 121 -178 241 -297 298 -154 75 -296 96
-457 68 -180 -31 -296 -89 -409 -203 -79 -81 -148 -201 -178 -314 l-18 -66
-74 15 c-84 17 -79 4 -43 121 43 138 123 264 235 372 116 111 225 172 386 215
84 22 108 24 248 20 132 -3 166 -7 230 -29z m-5995 -49 c56 -28 74 -46 103
-103 36 -72 41 -165 12 -232 -20 -47 -68 -105 -87 -105 -4 0 -25 -9 -45 -19
-49 -25 -198 -29 -198 -6 0 6 -3 7 -6 4 -17 -16 -129 85 -120 108 3 8 0 14 -6
12 -27 -5 -38 160 -14 217 54 130 228 190 361 124z m8895 -223 c0 -12 -19 -12
-23 0 -4 9 -1 12 9 8 7 -3 14 -7 14 -8z m27 -13 c-10 -10 -14 -22 -10 -25 3
-4 4 -7 0 -7 -15 0 -16 20 -1 34 22 22 31 20 11 -2z m70 -18 c-3 -3 -12 -4
-19 -1 -8 3 -5 6 6 6 11 1 17 -2 13 -5z m-6277 -284 c163 -105 390 -253 1125
-730 209 -136 415 -269 458 -297 l78 -49 -534 -825 c-829 -1281 -1499 -2314
-1502 -2317 -3 -3 -1820 1171 -1839 1189 -12 10 -56 -59 1000 1564 89 138 357
550 596 917 238 366 437 663 443 660 5 -3 84 -54 175 -112z m-5109 -443 c67
-45 77 -153 18 -208 -52 -48 -132 -45 -184 7 -19 19 -37 49 -40 67 -8 42 18
110 53 137 35 28 109 27 153 -3z m16014 -10 c79 -79 42 -219 -60 -228 -63 -5
-85 1 -118 35 -43 43 -53 90 -31 145 24 60 55 81 121 81 49 0 59 -4 88 -33z
m-15651 -693 c54 -93 113 -198 131 -234 85 -167 69 -292 -72 -575 -131 -262
-174 -434 -152 -607 38 -304 270 -563 560 -624 344 -73 739 153 847 486 34
103 44 198 31 302 -6 49 -8 92 -5 95 3 3 33 12 67 20 45 10 65 11 73 3 7 -7
11 -69 11 -178 0 -146 -3 -177 -24 -247 -46 -156 -125 -289 -237 -396 -85 -81
-140 -119 -246 -169 -134 -64 -190 -75 -373 -75 -186 0 -239 12 -382 80 -292
142 -482 433 -483 741 0 187 42 337 166 589 87 177 109 253 101 345 -9 96 -28
141 -149 353 -61 105 -106 193 -102 194 5 2 34 19 64 38 30 19 59 33 65 31 5
-1 54 -79 109 -172z m16000 0 c54 -93 113 -198 131 -234 85 -167 69 -292 -72
-575 -131 -262 -174 -434 -152 -607 38 -304 270 -563 560 -624 105 -22 249
-14 355 20 87 28 223 106 298 171 166 143 252 374 225 600 -6 48 -8 89 -5 92
3 3 33 12 67 20 45 10 65 11 73 3 7 -7 11 -69 11 -178 0 -145 -3 -177 -24
-246 -26 -89 -51 -146 -63 -146 -4 0 -8 -8 -8 -19 0 -55 -168 -252 -282 -330
-66 -44 -201 -107 -273 -127 -81 -21 -293 -30 -381 -15 -405 71 -713 423 -714
817 0 185 43 341 161 578 91 183 113 256 106 350 -8 101 -26 143 -149 359 -61
105 -106 193 -102 194 5 2 34 19 64 38 30 19 59 33 65 31 5 -1 54 -79 109
-172z m-2925 137 c10 -7 7 -9 -12 -8 -14 1 -23 5 -20 10 6 9 15 9 32 -2z m616
-1 c3 -5 1 -10 -4 -10 -6 0 -11 5 -11 10 0 6 2 10 4 10 3 0 8 -4 11 -10z
m-451 -9 c15 -6 16 -9 5 -13 -8 -3 -20 1 -27 8 -14 15 -7 17 22 5z m-222 -14
c-7 -8 -7 -18 -2 -27 7 -10 10 -11 10 -2 0 7 15 12 40 12 22 0 40 -4 40 -10 0
-6 28 -10 68 -9 51 1 60 3 37 9 -24 6 -19 7 22 6 29 0 48 -3 42 -5 -7 -2 -7
-6 2 -12 12 -8 11 -11 -1 -19 -8 -5 -22 -9 -30 -9 -10 0 -8 3 5 9 16 7 11 9
-20 9 -31 0 -36 -2 -20 -9 11 -5 16 -9 10 -10 -57 -9 -71 -13 -79 -21 -14 -13
-28 -11 -21 4 4 6 0 4 -8 -5 -14 -18 -54 -37 -72 -34 -5 0 -10 10 -11 21 -1
11 -2 25 -4 30 -1 6 -1 15 0 20 1 6 -2 6 -6 2 -14 -13 -16 -57 -3 -57 7 0 2
-12 -12 -27 -13 -16 -17 -22 -9 -15 8 6 18 12 24 12 5 0 -22 -22 -61 -49 -74
-52 -124 -105 -176 -184 -18 -28 -33 -43 -37 -36 -5 7 -9 5 -13 -6 -4 -9 -3
-13 3 -10 13 8 13 2 -2 -30 -14 -31 -32 -32 -59 -1 -11 13 -28 22 -37 19 -9
-2 -25 2 -35 9 -16 12 -15 17 20 77 21 35 50 77 65 93 15 16 26 30 25 31 -5 7
38 45 46 40 6 -3 7 -2 4 4 -3 5 9 25 28 43 19 19 35 29 35 23 0 -6 7 -14 16
-17 13 -5 14 -4 6 7 -9 10 -7 19 9 36 11 12 25 19 30 15 5 -3 9 -2 8 3 -4 20
2 24 18 12 15 -12 16 -12 10 4 -4 11 -3 16 3 12 6 -3 10 -2 10 4 0 6 10 15 21
22 15 8 19 8 15 0 -11 -18 3 -13 26 9 24 22 36 27 20 7z m368 -17 c-54 -15
-70 -23 -70 -32 0 -5 -4 -6 -10 -3 -16 10 -12 38 5 32 8 -4 17 -2 20 3 4 6 23
9 43 9 33 -1 34 -2 12 -9z m199 -16 c10 -9 -35 -3 -49 6 -11 8 -7 9 15 4 17
-4 32 -8 34 -10z m-81 -1 c-10 -2 -18 -12 -18 -20 0 -9 -3 -14 -6 -10 -12 11
5 37 23 36 17 -1 17 -2 1 -6z m-108 -13 c0 -5 -12 -10 -27 -9 -25 0 -26 1 -8
9 27 12 35 12 35 0z m43 -7 c-7 -2 -19 -2 -25 0 -7 3 -2 5 12 5 14 0 19 -2 13
-5z m102 -13 c2 -4 -7 -5 -20 -2 -14 2 -25 8 -25 12 0 10 38 1 45 -10z m284
-47 c1 -16 77 -18 86 -3 4 6 11 8 16 5 13 -9 11 9 -3 25 -11 12 -10 12 5 1 9
-7 17 -20 17 -27 0 -13 12 -18 33 -15 4 0 6 -2 6 -6 -4 -23 3 -35 15 -30 8 3
22 -3 32 -14 16 -18 16 -19 1 -13 -9 3 -17 10 -17 15 0 4 -7 6 -15 3 -8 -3
-14 -17 -13 -30 1 -12 4 -21 7 -19 2 3 9 1 15 -5 7 -5 17 -5 26 1 13 8 12 9
-2 7 -9 -2 -17 2 -17 7 0 33 88 -29 89 -62 0 -7 4 -13 8 -13 4 0 16 -13 25
-30 10 -16 15 -30 12 -30 -3 0 3 -10 15 -22 18 -20 25 -39 21 -60 0 -5 3 -8 9
-8 15 0 58 -149 71 -245 28 -210 -42 -456 -173 -615 -110 -132 -242 -226 -493
-350 -207 -101 -280 -174 -326 -321 -10 -32 -30 -150 -45 -262 -14 -111 -27
-203 -29 -205 -7 -8 -155 22 -155 32 0 6 16 123 35 260 29 210 39 258 64 311
53 114 160 199 384 303 189 88 348 202 429 309 153 198 197 478 111 702 -14
36 -25 74 -26 83 -1 9 -4 15 -8 13 -9 -6 -50 71 -41 80 4 5 2 5 -4 2 -7 -4
-19 5 -29 19 -19 29 -37 47 -84 87 -18 15 -29 27 -25 27 4 0 17 -8 28 -17 21
-18 21 -18 3 3 -16 19 -16 23 -3 37 17 16 11 27 -13 27 -14 0 -14 -2 -1 -10
11 -7 11 -10 2 -10 -7 0 -10 -4 -7 -10 3 -5 2 -10 -4 -10 -18 0 -41 12 -41 22
0 6 8 7 18 3 13 -5 14 -4 5 6 -9 9 -16 9 -26 1 -11 -9 -17 -4 -30 23 -18 38
-16 41 14 24 20 -10 20 -10 3 16 -13 20 -19 23 -25 13 -6 -9 -9 -9 -9 -1 0 6
-3 20 -7 30 -5 13 3 10 29 -12 20 -16 37 -36 37 -42z m-132 36 c18 -12 41 -18
49 -15 13 5 15 2 11 -14 -3 -11 -1 -20 4 -20 4 0 14 -10 20 -22 11 -22 11 -22
-7 -6 -10 9 -23 17 -27 17 -24 0 -67 28 -69 46 -2 16 -12 21 -46 23 -29 2 -42
0 -37 -7 3 -6 1 -11 -4 -11 -12 0 -14 13 -4 23 14 14 77 6 110 -14z m130 6 c0
-8 -4 -12 -9 -9 -5 3 -6 10 -3 15 9 13 12 11 12 -6z m-172 -15 c-3 -5 -12 -10
-18 -10 -7 0 -6 4 3 10 19 12 23 12 15 0z m-2990 -220 c3 -5 1 -10 -4 -10 -6
0 -11 5 -11 10 0 6 2 10 4 10 3 0 8 -4 11 -10z m-2637 -979 c121 -62 80 -251
-55 -251 -84 0 -133 51 -133 137 0 55 17 85 64 114 39 24 77 24 124 0z m-848
-1051 l0 -370 -361 0 -362 0 6 81 c7 93 49 222 98 306 19 32 70 94 114 138
117 118 262 188 425 205 36 4 68 8 73 9 4 0 7 -165 7 -369z m5948 -497 c40
-25 64 -73 59 -120 -6 -58 -30 -91 -83 -114 -37 -17 -50 -18 -84 -9 -114 31
-126 201 -17 251 45 20 85 18 125 -8z m-13652 -419 c-9 -86 -45 -197 -90 -278
-101 -180 -309 -325 -503 -351 -26 -3 -63 -8 -81 -11 -21 -2 -31 0 -27 6 3 5
1 10 -4 10 -8 0 -11 109 -11 345 l0 345 361 0 362 0 -7 -66z m16000 0 c-20
-196 -136 -393 -300 -508 -91 -64 -200 -109 -293 -121 -26 -3 -63 -8 -81 -11
-21 -2 -31 0 -27 6 3 5 1 10 -4 10 -8 0 -11 109 -11 345 l0 345 361 0 362 0
-7 -66z m-8227 -496 c16 -52 94 -341 97 -363 5 -29 12 -60 14 -60 1 0 4 -13 5
-30 2 -16 1 -24 -2 -17 -7 18 -93 16 -93 -3 0 -15 -5 -16 -102 -19 -21 -1 -27
-5 -23 -17 3 -10 -1 -16 -10 -16 -11 0 -14 7 -10 21 5 18 4 19 -7 6 -17 -20
-63 -40 -93 -40 -13 0 -34 -10 -46 -22 -13 -14 -23 -19 -26 -11 -9 24 -58 -2
-70 -38 -7 -19 -12 -26 -12 -16 -1 24 -33 57 -39 39 -2 -6 -8 -12 -14 -12 -6
0 -7 8 -4 18 5 14 4 14 -9 -2 -8 -11 -15 -23 -15 -28 0 -4 -24 -8 -54 -8 -35
0 -60 -5 -70 -15 -8 -8 -20 -15 -26 -15 -6 0 -8 -4 -5 -10 3 -5 -1 -10 -10
-10 -9 0 -14 3 -12 8 3 4 -6 8 -19 8 -13 1 -21 -2 -18 -7 3 -5 -2 -9 -10 -9
-8 0 -17 4 -20 8 -3 5 -22 9 -43 10 -23 1 -43 8 -50 19 -7 9 -13 11 -13 5 0
-7 -7 -12 -15 -12 -8 0 -15 6 -15 13 0 7 -3 8 -8 2 -4 -6 -62 -10 -132 -11
-195 -2 -385 -44 -590 -132 -47 -20 -91 -42 -98 -49 -13 -12 -26 -16 -37 -10
-2 1 -10 -7 -18 -17 -9 -12 -19 -16 -27 -11 -8 5 -11 4 -6 -3 8 -13 -28 -35
-39 -24 -5 4 -5 1 -1 -5 5 -8 -5 -19 -28 -30 -19 -9 -33 -20 -30 -24 2 -4 -5
-10 -16 -14 -11 -3 -20 -11 -20 -16 0 -5 -11 -7 -25 -5 -15 3 -24 0 -22 -7 1
-7 -3 -11 -10 -10 -8 2 -10 -4 -6 -14 4 -10 2 -14 -4 -10 -13 8 -73 -11 -73
-23 0 -5 4 -11 10 -15 5 -3 6 -13 3 -21 -5 -12 -7 -13 -14 -3 -14 23 -21 2 -9
-23 10 -19 10 -21 0 -11 -7 7 -14 23 -16 35 -1 13 -3 30 -4 38 -1 10 -3 11 -7
3 -2 -7 -17 -13 -31 -13 -15 0 -49 -11 -76 -25 -28 -14 -67 -25 -88 -25 -23 0
-58 -10 -84 -25 -25 -14 -58 -25 -74 -25 -33 0 -111 -28 -123 -44 -5 -6 -5 0
-2 13 7 23 7 23 -16 7 -13 -9 -33 -17 -44 -17 -14 -1 -11 -4 10 -9 l30 -8 -32
-1 c-17 0 -33 4 -35 11 -2 6 -21 -5 -42 -27 -26 -26 -36 -32 -32 -18 4 13 -2
26 -19 41 l-25 22 6 -27 c4 -16 3 -24 -2 -20 -5 5 -9 12 -10 15 0 4 -4 14 -7
22 -15 36 -108 380 -110 405 -2 28 0 29 98 56 113 30 699 191 1220 334 193 53
487 134 655 180 744 203 865 237 869 241 11 10 20 2 30 -28z m143 -523 c4 -17
1 -25 -8 -25 -9 0 -14 11 -14 31 0 35 15 31 22 -6z m-225 -17 c-3 -8 -6 -5 -6
6 -1 11 2 17 5 13 3 -3 4 -12 1 -19z m-223 -64 c8 -32 4 -38 -23 -29 -23 7
-27 25 -9 43 18 18 25 15 32 -14z m-137 -16 c-3 -8 -6 -5 -6 6 -1 11 2 17 5
13 3 -3 4 -12 1 -19z m-134 -40 c-6 -7 -12 -20 -15 -28 -3 -9 -7 -10 -11 -3
-4 6 0 19 9 27 18 19 31 21 17 4z m33 -7 c0 -11 -6 -17 -13 -14 -6 3 -9 11 -6
19 7 20 19 17 19 -5z m7274 -205 c0 -7 70 -312 155 -677 86 -365 203 -866 261
-1114 57 -247 118 -506 134 -575 29 -119 67 -285 215 -920 36 -157 70 -299 74
-315 l8 -31 -376 -88 c-207 -48 -574 -134 -816 -191 -703 -165 -909 -213 -929
-217 -23 -4 24 -193 -512 2081 -201 854 -363 1555 -361 1558 3 2 227 56 498
120 272 64 746 175 1054 248 308 73 568 133 578 134 9 1 17 -5 17 -13z m-8648
-123 c-6 -3 -10 -8 -7 -13 2 -4 -4 -15 -14 -24 -17 -15 -19 -15 -25 -1 -3 9
-2 14 3 11 5 -3 16 6 26 20 9 14 20 22 23 18 4 -3 1 -9 -6 -11z m-60 -66 c-7
-8 -10 -16 -7 -19 3 -2 -2 -5 -10 -5 -10 0 -12 4 -5 12 5 7 6 16 2 20 -4 5 -1
5 6 1 7 -4 12 -2 12 5 0 7 3 9 6 6 4 -4 2 -13 -4 -20z m-741 -184 c-9 -16 -10
-14 -11 12 0 21 3 26 11 18 8 -8 8 -16 0 -30z m299 12 c0 -8 -4 -15 -9 -15
-13 0 -22 16 -14 24 11 11 23 6 23 -9z m-160 -10 c0 -8 -7 -15 -15 -15 -16 0
-20 12 -8 23 11 12 23 8 23 -8z m5282 -59 c190 -37 340 -119 474 -258 164
-171 226 -334 227 -593 0 -140 -7 -196 -53 -403 -35 -156 -37 -226 -10 -313
29 -95 64 -143 230 -314 82 -86 150 -159 150 -163 0 -4 -25 -32 -55 -62 l-56
-55 -167 174 c-197 205 -226 243 -254 335 -28 91 -21 230 21 411 73 321 66
505 -25 691 -90 184 -279 339 -472 389 -242 62 -482 -8 -672 -195 -161 -157
-230 -312 -230 -516 0 -96 22 -201 60 -287 12 -27 20 -50 18 -52 -1 -1 -32
-17 -67 -35 -50 -25 -66 -29 -72 -19 -22 36 -69 204 -80 284 -48 366 149 733
486 903 162 81 373 111 547 78z m1395 -2366 c51 -31 66 -62 61 -127 -4 -47
-10 -61 -36 -84 -44 -40 -91 -46 -144 -20 -24 11 -51 34 -61 50 -21 35 -22
102 -3 140 30 57 123 78 183 41z m-7579 -273 c1 -15 -4 -24 -13 -24 -8 0 -15
4 -15 9 0 4 -5 8 -11 8 -5 0 -8 -4 -4 -9 3 -5 1 -12 -5 -16 -5 -3 -10 -14 -10
-23 1 -16 1 -16 11 1 5 9 15 17 21 17 6 0 5 -7 -3 -17 -7 -10 -9 -15 -5 -11
11 10 46 -55 46 -86 0 -13 9 -35 20 -49 11 -14 20 -28 20 -31 0 -6 -39 -2 -90
8 -27 6 -63 43 -55 56 3 5 1 11 -5 15 -13 8 -13 85 0 85 6 0 9 3 9 8 -4 23 3
34 17 28 10 -4 14 -1 11 6 -2 7 10 20 27 29 17 9 31 17 31 18 0 1 2 -9 3 -22z
m5601 -123 c81 -20 207 -86 274 -141 154 -128 250 -318 259 -508 l3 -60 -135
1 c-74 1 -235 2 -358 3 l-224 1 3 78 c1 42 -2 207 -6 366 l-8 289 68 -8 c38
-4 93 -13 124 -21z m-5522 -31 c-4 -3 -2 -12 3 -18 7 -9 6 -14 -3 -18 -9 -3
-13 2 -11 16 3 28 3 27 11 27 3 0 3 -3 0 -7z m-345 -419 c-5 -22 -274 -355
-324 -401 -58 -53 -110 -79 -195 -99 -69 -17 -152 -16 -413 5 -131 10 -310 -3
-395 -29 -177 -55 -321 -165 -418 -321 -73 -118 -99 -201 -104 -345 -6 -140
13 -231 73 -344 100 -190 312 -353 517 -397 156 -33 356 1 491 82 32 19 60 34
62 32 2 -2 21 -31 43 -65 l40 -61 -62 -35 c-78 -44 -220 -92 -317 -107 -157
-24 -367 9 -513 82 -222 111 -390 313 -463 554 -23 78 -27 108 -28 230 0 115
4 155 22 225 81 306 300 530 597 611 69 19 108 22 285 23 113 1 259 -3 325 -8
102 -7 129 -6 180 8 128 37 183 84 361 306 l127 158 56 -45 c31 -25 55 -52 53
-59z m-3052 -808 c0 -290 -2 -345 -14 -349 -8 -3 -17 -1 -20 6 -5 9 -7 9 -12
0 -9 -20 -24 -15 -17 5 3 9 3 14 -2 10 -4 -4 -14 -3 -22 3 -17 14 -17 -3 0
-20 10 -10 9 -11 -5 -6 -10 4 -18 14 -18 21 0 8 -7 17 -15 20 -8 4 -13 10 -10
15 3 4 -4 6 -15 4 -12 -2 -31 6 -47 21 -20 18 -29 21 -39 13 -11 -9 -14 -7
-14 10 0 14 -6 21 -20 21 -11 0 -20 5 -20 10 0 6 7 10 15 10 16 0 19 9 9 34
-8 22 -33 20 -33 -1 -1 -41 -5 -49 -25 -51 -14 -1 -17 1 -8 7 11 6 10 11 -3
24 -12 13 -21 14 -43 6 -22 -8 -25 -8 -14 2 6 7 12 16 12 20 0 12 -30 39 -43
39 -7 0 -4 -5 6 -11 26 -15 21 -29 -7 -16 -13 6 -29 23 -35 37 l-11 25 5 -27
c3 -17 1 -28 -5 -28 -6 0 -8 4 -5 10 7 11 -74 92 -85 85 -5 -3 -11 -1 -15 5
-4 6 -11 7 -17 4 -7 -4 -8 -2 -4 4 4 7 2 12 -4 12 -6 0 -8 5 -4 12 5 8 10 7
18 -3 19 -24 36 -21 36 7 0 20 -3 24 -12 16 -26 -20 -57 -8 -78 31 -11 21 -18
42 -15 47 4 6 2 10 -4 10 -14 0 -47 111 -56 188 l-7 62 361 0 361 0 0 -344z
m16000 5 c0 -306 -2 -340 -17 -352 -11 -10 -14 -10 -9 -1 4 6 3 12 -3 12 -5 0
-13 -4 -16 -10 -3 -5 -12 -10 -18 -9 -9 0 -9 2 1 6 6 2 12 12 12 20 0 12 -3
13 -13 4 -10 -8 -17 -7 -25 1 -7 7 -12 8 -12 2 0 -5 6 -16 13 -23 10 -10 9
-11 -5 -6 -10 4 -18 14 -18 21 0 8 -7 17 -15 20 -8 4 -12 11 -9 16 4 6 -6 2
-22 -8 -15 -11 -25 -13 -21 -6 6 8 1 12 -15 13 -20 0 -21 1 -4 8 17 7 16 8 -7
24 -15 9 -30 17 -35 17 -5 0 -17 9 -27 20 -17 19 -52 29 -41 12 2 -4 -5 -9
-17 -9 -15 -2 -18 0 -9 6 11 6 10 11 -3 24 -12 13 -21 14 -43 6 -22 -8 -25 -8
-14 2 6 7 12 16 12 20 0 12 -30 39 -43 39 -7 0 -4 -5 6 -11 26 -15 21 -29 -7
-16 -13 6 -29 23 -35 37 l-11 25 5 -27 c3 -17 1 -28 -5 -28 -6 0 -8 4 -5 10 3
5 -15 30 -41 54 -29 28 -43 49 -38 57 4 8 3 10 -4 5 -7 -4 -12 -3 -12 3 0 5 5
13 10 16 6 3 10 12 10 18 0 7 -12 -6 -25 -28 -14 -22 -25 -34 -25 -27 0 21 -3
27 -19 40 -13 11 -13 12 -1 7 12 -5 12 -4 -1 7 -22 18 -41 57 -34 68 3 6 2 10
-4 10 -14 0 -47 111 -56 188 l-7 62 361 0 361 0 0 -339z m-566 -47 c3 -8 2
-12 -4 -9 -6 3 -10 10 -10 16 0 14 7 11 14 -7z m-15984 -34 c1 12 3 11 11 -2
5 -10 17 -18 24 -18 8 0 15 -4 15 -10 0 -15 -16 -12 -34 5 -8 9 -19 15 -23 15
-4 -1 -9 4 -11 12 -2 9 0 8 7 -2 10 -13 11 -13 11 0z m16000 0 c1 12 3 11 11
-2 5 -10 17 -18 24 -18 8 0 15 -4 15 -10 0 -15 -16 -12 -34 5 -8 9 -19 15 -23
15 -4 -1 -9 4 -11 12 -2 9 0 8 7 -2 10 -13 11 -13 11 0z m-15940 -56 c0 -8
-19 -13 -24 -6 -3 5 1 9 9 9 8 0 15 -2 15 -3z m16000 0 c0 -8 -19 -13 -24 -6
-3 5 1 9 9 9 8 0 15 -2 15 -3z m-15945 -64 c10 -11 16 -20 13 -20 -3 0 -13 9
-23 20 -10 11 -16 20 -13 20 3 0 13 -9 23 -20z m16000 0 c10 -11 16 -20 13
-20 -3 0 -13 9 -23 20 -10 11 -16 20 -13 20 3 0 13 -9 23 -20z m-15845 -44 c0
-2 -9 -6 -20 -9 -11 -3 -18 -1 -14 4 5 9 34 13 34 5z m16055 -34 c-3 -3 -11 0
-18 7 -9 10 -8 11 6 5 10 -3 15 -9 12 -12z m-15940 -42 c3 -5 1 -10 -4 -10 -6
0 -11 5 -11 10 0 6 2 10 4 10 3 0 8 -4 11 -10z m16045 -17 c0 -12 -2 -12 -15
1 -8 8 -15 17 -15 20 0 3 7 3 15 0 8 -4 15 -13 15 -21z m-16000 2 c0 -8 -2
-15 -4 -15 -2 0 -6 7 -10 15 -3 8 -1 15 4 15 6 0 10 -7 10 -15z m9920 -65 c9
-16 8 -18 -5 -14 -8 4 -15 12 -15 20 0 20 7 17 20 -6z m-19 -42 c0 -10 2 -10
6 0 4 10 8 10 19 1 8 -6 14 -16 14 -21 0 -6 -7 -4 -17 3 -9 8 -17 13 -17 11
-1 -2 -9 0 -19 3 -9 4 -29 5 -42 3 -14 -3 -25 -1 -25 3 0 14 80 11 81 -3z
m-3767 -100 c5 -63 29 -564 111 -2308 9 -179 26 -557 40 -840 13 -283 22 -516
21 -518 -2 -1 -68 -5 -147 -8 -79 -3 -570 -26 -1091 -52 -521 -25 -949 -44
-951 -42 -2 3 -14 217 -26 475 -12 259 -24 495 -26 525 -3 30 -11 201 -20 380
-8 179 -17 372 -20 430 -17 317 -93 1925 -92 1926 3 2 2050 101 2124 103 l71
1 6 -72z m3731 50 c34 -2 40 -6 39 -24 0 -15 4 -20 14 -17 8 3 18 0 23 -8 6
-10 9 -11 9 -1 0 7 -7 15 -15 18 -8 4 -15 14 -15 24 0 10 -5 21 -10 23 -6 3
-5 4 2 3 20 -4 47 -58 52 -102 2 -21 9 -51 15 -66 6 -15 12 -42 14 -60 3 -18
7 -40 11 -48 6 -17 76 -312 491 -2073 158 -670 285 -1220 283 -1223 -2 -2
-256 -63 -564 -135 -307 -72 -863 -202 -1234 -289 -371 -88 -678 -156 -681
-152 -4 4 -41 153 -82 332 -42 179 -211 905 -377 1614 -165 709 -299 1295
-296 1303 3 7 1 13 -3 13 -5 0 -14 23 -20 50 -14 63 -14 63 2 54 6 -4 4 2 -6
14 -11 11 -19 37 -20 56 -1 20 -5 36 -10 36 -4 0 -5 5 -2 10 4 6 2 16 -3 23
-5 7 -12 24 -16 39 -5 21 -2 30 13 37 26 15 34 2 15 -27 -20 -31 -13 -37 14
-12 24 23 27 35 12 45 -5 3 -10 14 -9 23 0 13 3 12 11 -5 8 -17 17 -21 37 -17
14 2 57 6 95 7 50 2 72 8 81 20 8 11 26 17 49 17 20 0 36 5 36 10 0 6 18 10
39 10 22 0 41 4 43 9 3 11 165 18 175 7 3 -3 0 -6 -7 -6 -7 0 -11 -2 -8 -5 3
-3 13 -3 22 1 15 6 15 8 -4 21 -31 22 -24 33 20 33 22 0 40 5 40 10 0 6 18 10
40 10 22 0 40 5 40 10 0 6 34 10 81 10 76 0 80 1 74 20 -6 18 -2 20 39 20 25
0 46 5 46 10 0 6 18 10 40 10 22 0 40 5 40 10 0 6 18 10 40 10 22 0 40 5 40
11 0 7 29 9 84 7 64 -2 82 0 79 10 -4 8 7 12 36 12 23 0 41 5 41 10 0 6 18 10
40 10 22 0 40 5 40 10 0 6 18 10 40 10 48 0 55 20 8 21 l-33 1 30 9 c19 5 31
5 33 -1 5 -13 82 -13 82 0 0 6 18 10 40 10 22 0 40 5 40 10 0 6 18 10 40 10
22 0 40 5 40 10 0 6 33 10 80 10 73 0 80 2 80 20 0 17 7 20 40 20 22 0 40 5
40 10 0 6 18 10 40 10 22 0 40 5 40 10 0 6 18 10 40 10 41 0 58 19 18 21 -40
1 31 18 85 20 26 1 47 6 47 11 0 4 9 8 20 8 11 0 20 6 20 13 0 9 2 9 8 0 4 -6
25 -13 47 -15z m-345 -28 c0 -5 -5 -10 -11 -10 -5 0 -7 5 -4 10 3 6 8 10 11
10 2 0 4 -4 4 -10z m-305 -80 c-27 -5 -66 -8 -85 -8 -32 1 -31 2 10 8 25 4 63
7 85 7 38 0 37 0 -10 -7z m118 -7 c-7 -2 -19 -2 -25 0 -7 3 -2 5 12 5 14 0 19
-2 13 -5z m-473 -73 c0 -5 -18 -10 -40 -10 -22 0 -40 5 -40 10 0 6 18 10 40
10 22 0 40 -4 40 -10z m-337 -77 c-13 -2 -33 -2 -45 0 -13 2 -3 4 22 4 25 0
35 -2 23 -4z m-160 -23 c-13 -5 -23 -15 -23 -21 0 -7 -2 -10 -5 -7 -12 11 9
38 29 37 21 0 21 0 -1 -9z m2 -40 c-11 -5 -15 -9 -10 -10 14 -3 -45 -17 -75
-18 -16 -1 -8 5 25 17 51 19 97 27 60 11z m-162 -17 c-13 -2 -33 -2 -45 0 -13
2 -3 4 22 4 25 0 35 -2 23 -4z m-243 -87 c14 -3 -11 -2 -55 1 -44 2 -84 8 -88
12 -7 7 82 -1 143 -13z m-190 4 c0 -5 -5 -10 -11 -10 -5 0 -7 5 -4 10 3 6 8
10 11 10 2 0 4 -4 4 -10z m35 0 c3 -5 1 -10 -4 -10 -6 0 -11 5 -11 10 0 6 2
10 4 10 3 0 8 -4 11 -10z m-90 -28 c-3 -3 -11 0 -18 7 -9 10 -8 11 6 5 10 -3
15 -9 12 -12z m-145 -22 c-8 -6 -22 -10 -30 -9 -9 0 -5 6 10 14 27 14 44 10
20 -5z m111 1 c-8 -5 -11 -15 -8 -23 4 -11 -5 -15 -37 -16 -39 -1 -39 0 -12 8
17 5 34 16 38 25 5 8 14 15 21 15 8 0 7 -3 -2 -9z m-194 -23 c-3 -8 -6 -5 -6
6 -1 11 2 17 5 13 3 -3 4 -12 1 -19z m245 0 c-3 -14 -7 -16 -18 -7 -19 16 -17
25 5 25 12 0 17 -6 13 -18z m-252 -29 c0 -5 -8 -9 -17 -8 -11 0 -13 3 -5 6 6
2 9 10 6 15 -4 7 -2 8 4 4 7 -4 12 -11 12 -17z m70 11 c0 -5 -4 -10 -10 -10
-5 0 -10 5 -10 10 0 6 5 10 10 10 6 0 10 -4 10 -10z m6549 -925 c99 -24 183
-70 244 -134 99 -103 137 -220 116 -351 -19 -122 -78 -219 -171 -283 -246
-169 -640 -75 -762 182 -29 61 -31 74 -31 176 0 103 2 114 32 177 55 116 139
190 261 229 72 23 222 25 311 4z m-12455 -804 c118 -31 216 -83 293 -154 202
-188 274 -466 192 -733 -43 -140 -109 -252 -283 -477 -228 -296 -281 -378
-324 -500 -29 -84 -33 -194 -9 -269 14 -45 14 -46 -7 -52 -11 -3 -36 -6 -54
-6 -31 0 -35 4 -59 57 -21 46 -27 77 -31 159 -6 128 22 243 110 459 157 386
191 495 209 669 32 318 -74 598 -261 689 -143 70 -347 54 -500 -38 -61 -37
-175 -149 -189 -186 -25 -69 -29 -65 61 -65 94 0 147 -21 191 -74 50 -59 71
-186 45 -272 -17 -57 -88 -133 -146 -155 -67 -26 -184 -24 -237 4 -206 109
-204 431 5 682 147 177 481 297 795 286 77 -2 148 -11 199 -24z m12276 -352
c179 -23 326 -43 328 -44 3 -3 -80 -838 -84 -843 -1 -2 -69 6 -151 17 -417 58
-570 49 -695 -40 -48 -35 -82 -120 -82 -204 0 -134 70 -210 203 -222 132 -12
214 48 250 184 11 40 13 41 44 36 17 -2 192 -26 387 -52 l355 -47 -3 -44 c-10
-167 -109 -375 -239 -505 -178 -177 -398 -258 -708 -258 -509 -1 -902 209
-1048 558 -44 105 -62 207 -61 350 1 453 237 758 659 851 56 12 126 18 231 18
l152 1 27 140 c15 77 30 144 33 149 2 4 21 6 41 3 20 -3 182 -25 361 -48z
m-2970 -2254 c0 -261 -3 -335 -12 -336 -10 0 -10 -2 0 -6 21 -8 14 -32 -8 -26
-11 3 -20 10 -20 17 0 6 -5 4 -11 -4 -8 -12 -12 -12 -16 -2 -4 10 -8 10 -19 2
-16 -14 -37 -3 -30 16 5 12 2 12 -15 3 -11 -6 -23 -8 -26 -6 -3 3 8 12 23 20
l28 15 -42 -3 c-23 -1 -39 1 -37 5 7 12 -34 44 -74 57 -20 7 -26 11 -13 9 33
-6 17 10 -17 17 -16 3 -46 18 -66 32 -21 14 -44 25 -52 25 -8 0 -11 5 -8 10 8
13 -1 13 -26 0 -10 -6 -19 -16 -19 -22 0 -7 4 -7 14 1 11 9 16 9 22 0 4 -7 3
-9 -4 -5 -6 3 -13 2 -17 -3 -8 -14 -35 -2 -35 16 0 8 4 12 9 9 5 -3 15 1 22
10 10 13 10 17 -2 25 -13 8 -34 12 -50 11 -3 -1 -5 12 -4 29 1 16 -3 29 -8 29
-5 0 -7 -9 -4 -20 3 -11 -2 -25 -11 -32 -12 -10 -14 -10 -8 0 4 6 2 12 -3 12
-6 0 -11 5 -11 11 0 5 5 7 10 4 6 -3 10 -1 10 5 0 7 -8 9 -19 5 -22 -7 -34 17
-26 49 5 18 3 17 -10 -4 -15 -23 -16 -24 -12 -3 5 22 -14 48 -26 37 -4 -4 -11
6 -17 22 -6 16 -15 39 -21 51 -6 11 -8 27 -4 34 5 7 4 10 -2 6 -11 -7 -28 42
-38 108 -3 22 -8 54 -11 72 l-5 31 361 1 360 1 0 -335z m-9245 -17 c56 -28 74
-46 102 -101 36 -72 42 -168 14 -234 -21 -47 -68 -105 -88 -105 -4 0 -25 -9
-45 -19 -46 -24 -198 -29 -198 -7 0 4 -3 7 -7 6 -34 -7 -127 84 -142 139 -15
53 -14 157 2 196 55 131 230 191 362 125z m8640 12 c3 -5 1 -10 -4 -10 -6 0
-11 5 -11 10 0 6 2 10 4 10 3 0 8 -4 11 -10z m352 -266 c-3 -3 -12 -4 -19 -1
-8 3 -5 6 6 6 11 1 17 -2 13 -5z m-11386 -727 c67 -45 77 -153 18 -208 -52
-48 -132 -45 -184 7 -19 19 -37 49 -40 67 -8 42 18 110 53 137 35 28 109 27
153 -3z m16012 -10 c82 -77 45 -219 -58 -228 -64 -5 -85 1 -119 36 -44 44 -53
87 -31 143 25 60 56 82 121 82 46 0 57 -4 87 -33z"/>
<path d="M13242 17201 c4 -13 18 -16 19 -4 0 4 -5 9 -11 12 -7 2 -11 -2 -8 -8z"/>
<path d="M4218 17243 c7 -3 16 -2 19 1 4 3 -2 6 -13 5 -11 0 -14 -3 -6 -6z"/>
<path d="M3881 17098 c-1 -16 4 -28 9 -28 6 0 10 2 10 4 0 2 3 12 7 22 4 11 3
15 -4 11 -6 -4 -14 -1 -16 5 -3 7 -6 1 -6 -14z"/>
<path d="M6855 16300 c-270 -40 -485 -225 -485 -415 0 -84 14 -126 60 -178 79
-89 198 -127 302 -95 88 26 180 145 194 250 9 67 -30 145 -100 200 -28 22 -52
44 -54 48 -2 4 19 18 45 31 43 22 61 24 178 24 149 0 202 -15 311 -85 224
-146 272 -355 143 -617 -23 -46 -64 -113 -91 -150 -135 -183 -267 -281 -648
-483 -325 -172 -456 -293 -505 -463 -9 -32 -15 -60 -13 -61 24 -19 85 -56 93
-56 6 0 18 23 28 50 27 75 119 168 215 218 106 55 167 74 456 143 390 92 482
126 622 225 135 95 244 258 279 419 24 105 17 275 -14 365 -73 211 -266 402
-535 531 -163 78 -357 118 -481 99z"/>
<path d="M6515 16190 c-3 -5 -2 -10 4 -10 5 0 13 5 16 10 3 6 2 10 -4 10 -5 0
-13 -4 -16 -10z"/>
<path d="M6045 15820 c3 -5 8 -10 11 -10 2 0 4 5 4 10 0 6 -5 10 -11 10 -5 0
-7 -4 -4 -10z"/>
<path d="M7160 15316 c0 -2 7 -9 15 -16 9 -7 15 -8 15 -2 0 5 -7 12 -15 16 -8
3 -15 4 -15 2z"/>
<path d="M5845 13961 c-48 -12 -87 -36 -126 -78 -110 -115 -110 -267 1 -367
123 -111 276 -109 374 5 125 147 83 344 -89 420 -49 21 -120 30 -160 20z"/>
<path d="M15126 15798 c2 -3 -1 -8 -8 -10 -7 -3 -2 -7 10 -10 13 -4 20 -2 16
4 -3 5 2 8 11 6 10 -2 20 2 22 8 2 7 -8 11 -26 10 -16 -1 -27 -4 -25 -8z"/>
<path d="M15145 15751 c3 -5 1 -12 -5 -16 -5 -3 -10 -12 -10 -18 0 -7 4 -6 11
3 9 12 10 10 5 -9 -3 -15 -1 -20 5 -14 17 17 18 51 3 57 -8 3 -12 2 -9 -3z"/>
<path d="M15245 15740 c-3 -5 -1 -10 4 -10 6 0 11 5 11 10 0 6 -2 10 -4 10 -3
0 -8 -4 -11 -10z"/>
<path d="M15055 15670 c-3 -6 1 -7 9 -4 18 7 21 14 7 14 -6 0 -13 -4 -16 -10z"/>
<path d="M16094 15699 c0 -22 12 -25 19 -5 3 8 0 16 -6 19 -7 3 -13 -3 -13
-14z"/>
<path d="M16130 15690 c0 -5 5 -10 11 -10 5 0 7 5 4 10 -3 6 -8 10 -11 10 -2
0 -4 -4 -4 -10z"/>
<path d="M16133 15593 c4 -3 2 -11 -3 -18 -7 -8 -6 -12 3 -12 7 0 14 9 14 19
1 10 -3 18 -9 18 -6 0 -8 -3 -5 -7z"/>
<path d="M16270 15494 c0 -9 7 -14 17 -12 25 5 28 28 4 28 -12 0 -21 -6 -21
-16z"/>
<path d="M15832 14244 c-7 -8 -8 -14 -3 -14 10 0 25 19 20 25 -2 1 -10 -3 -17
-11z"/>
<path d="M15373 13715 c0 -10 5 -11 19 -4 10 5 18 11 18 12 0 2 -8 3 -18 4
-10 1 -19 -5 -19 -12z"/>
<path d="M15868 15733 c7 -3 16 -2 19 1 4 3 -2 6 -13 5 -11 0 -14 -3 -6 -6z"/>
<path d="M15896 15721 c-3 -5 0 -11 7 -14 8 -3 14 1 14 9 0 16 -13 19 -21 5z"/>
<path d="M9066 13595 c-9 -26 -7 -32 5 -12 6 10 9 21 6 23 -2 3 -7 -2 -11 -11z"/>
<path d="M9041 13184 c0 -11 3 -14 6 -6 3 7 2 16 -1 19 -3 4 -6 -2 -5 -13z"/>
<path d="M8910 13150 c0 -5 5 -10 10 -10 6 0 10 5 10 10 0 6 -4 10 -10 10 -5
0 -10 -4 -10 -10z"/>
<path d="M970 12458 c0 -9 5 -20 10 -23 13 -8 13 5 0 25 -8 13 -10 13 -10 -2z"/>
<path d="M9350 11924 c0 -8 5 -12 10 -9 6 4 8 11 5 16 -9 14 -15 11 -15 -7z"/>
<path d="M9260 11910 c0 -5 4 -10 9 -10 6 0 13 5 16 10 3 6 -1 10 -9 10 -9 0
-16 -4 -16 -10z"/>
<path d="M8295 11680 c-3 -5 -1 -10 4 -10 6 0 11 5 11 10 0 6 -2 10 -4 10 -3
0 -8 -4 -11 -10z"/>
<path d="M8145 11470 c3 -5 8 -10 11 -10 2 0 4 5 4 10 0 6 -5 10 -11 10 -5 0
-7 -4 -4 -10z"/>
<path d="M6712 11048 c3 -7 15 -15 27 -16 16 -3 22 1 19 10 -3 7 -15 15 -27
16 -16 3 -22 -1 -19 -10z"/>
<path d="M7370 11036 c0 -2 7 -7 16 -10 8 -3 12 -2 9 4 -6 10 -25 14 -25 6z"/>
<path d="M6798 10959 c-23 -25 -8 -32 19 -9 15 12 18 19 10 22 -6 3 -20 -4
-29 -13z"/>
<path d="M6805 10924 c-26 -12 -27 -14 -5 -9 14 2 31 5 38 5 6 0 12 5 12 10 0
13 -9 12 -45 -6z"/>
<path d="M6690 10915 c0 -8 4 -15 10 -15 5 0 7 7 4 15 -4 8 -8 15 -10 15 -2 0
-4 -7 -4 -15z"/>
<path d="M6748 10923 c7 -3 16 -2 19 1 4 3 -2 6 -13 5 -11 0 -14 -3 -6 -6z"/>
<path d="M15169 10719 c-103 -15 -192 -82 -219 -164 -27 -82 3 -217 64 -283
55 -61 163 -86 257 -58 80 23 132 64 164 131 25 49 27 64 23 129 -11 167 -131
269 -289 245z"/>
<path d="M15367 9818 c-29 -8 -37 -14 -33 -27 3 -9 14 -41 25 -71 25 -67 27
-169 6 -259 -22 -90 -74 -197 -205 -416 -228 -382 -279 -507 -288 -706 -6
-136 14 -229 74 -348 161 -322 501 -449 915 -342 352 91 572 267 655 526 34
104 38 233 10 318 -23 70 -88 146 -149 176 -86 42 -229 21 -305 -45 -65 -55
-86 -104 -87 -194 0 -200 122 -302 319 -265 31 6 36 5 36 -11 0 -44 -53 -129
-123 -199 -121 -121 -254 -171 -428 -163 -80 4 -103 9 -154 35 -190 98 -304
371 -292 703 5 157 24 256 103 532 72 255 88 341 87 468 -1 114 -20 190 -68
262 -27 40 -36 42 -98 26z"/>
<path d="M15865 8150 c-3 -5 1 -10 9 -10 9 0 16 5 16 10 0 6 -4 10 -9 10 -6 0
-13 -4 -16 -10z"/>
<path d="M15230 7501 c0 -18 18 -21 30 -6 10 13 9 15 -9 15 -11 0 -21 -4 -21
-9z"/>
<path d="M14980 7252 c0 -5 9 -17 20 -27 16 -14 20 -15 20 -4 0 16 -19 39 -32
39 -4 0 -8 -4 -8 -8z"/>
<path d="M14928 7203 c7 -3 16 -2 19 1 4 3 -2 6 -13 5 -11 0 -14 -3 -6 -6z"/>
<path d="M11150 10070 c0 -5 5 -10 10 -10 6 0 10 5 10 10 0 6 -4 10 -10 10 -5
0 -10 -4 -10 -10z"/>
<path d="M5890 7960 c13 -11 25 -20 28 -20 3 0 -3 9 -13 20 -10 11 -23 20 -28
20 -6 0 0 -9 13 -20z"/>
<path d="M4687 7193 c-4 -3 -7 -11 -7 -17 0 -6 5 -5 12 2 6 6 9 14 7 17 -3 3
-9 2 -12 -2z"/>
<path d="M2100 6889 c0 -5 5 -7 10 -4 6 3 10 8 10 11 0 2 -4 4 -10 4 -5 0 -10
-5 -10 -11z"/>
<path d="M2470 6869 c0 -5 5 -7 10 -4 6 3 10 8 10 11 0 2 -4 4 -10 4 -5 0 -10
-5 -10 -11z"/>
<path d="M2477 6616 c-10 -24 4 -76 19 -76 18 0 18 50 1 74 -13 17 -14 17 -20
2z"/>
<path d="M18293 6723 c9 -2 23 -2 30 0 6 3 -1 5 -18 5 -16 0 -22 -2 -12 -5z"/>
<path d="M18467 6714 c-11 -11 3 -24 24 -24 12 0 19 5 17 13 -5 14 -31 21 -41
11z"/>
<path d="M7488 5967 c-69 -20 -121 -61 -154 -120 -56 -102 -29 -257 57 -331
48 -41 97 -56 181 -56 210 0 325 224 210 410 -52 83 -185 127 -294 97z"/>
<path d="M7621 5053 c-50 -4 -53 -6 -46 -26 17 -51 17 -185 0 -243 -37 -129
-93 -213 -303 -452 -272 -310 -340 -407 -399 -574 -35 -99 -43 -272 -18 -383
42 -191 178 -371 342 -454 133 -66 204 -83 388 -88 184 -6 291 8 440 58 179
60 300 149 392 290 64 99 92 185 94 291 2 101 -12 151 -60 214 -45 59 -109 94
-188 101 -158 14 -287 -87 -300 -236 -17 -179 79 -291 249 -291 57 0 59 -1 53
-22 -26 -86 -157 -198 -283 -242 -72 -26 -195 -37 -275 -26 -223 32 -346 190
-378 482 -8 73 -8 126 1 201 22 197 58 300 225 647 160 331 199 469 175 609
-10 58 -44 154 -52 149 -2 -1 -27 -3 -57 -5z"/>
<path d="M7660 3304 c0 -17 22 -14 28 4 2 7 -3 12 -12 12 -9 0 -16 -7 -16 -16z"/>
<path d="M6980 2820 c0 -5 5 -10 10 -10 6 0 10 5 10 10 0 6 -4 10 -10 10 -5 0
-10 -4 -10 -10z"/>
<path d="M8706 2811 c-4 -7 -5 -15 -2 -18 9 -9 19 4 14 18 -4 11 -6 11 -12 0z"/>
<path d="M8725 2760 c3 -5 13 -10 21 -10 8 0 12 5 9 10 -3 6 -13 10 -21 10 -8
0 -12 -4 -9 -10z"/>
<path d="M12293 6265 c-27 -11 -28 -18 -9 -34 12 -10 17 -8 26 9 15 29 9 37
-17 25z"/>
<path d="M12241 6249 c0 -9 6 -22 14 -29 10 -9 15 -9 15 -1 0 6 -4 11 -9 11
-5 0 -12 8 -14 18 -4 14 -5 14 -6 1z"/>
<path d="M12288 6203 c6 -2 18 -2 25 0 6 3 1 5 -13 5 -14 0 -19 -2 -12 -5z"/>
<path d="M11378 5993 c12 -2 32 -2 45 0 12 2 2 4 -23 4 -25 0 -35 -2 -22 -4z"/>
<path d="M11280 5976 c0 -10 28 -13 41 -5 10 6 7 9 -13 9 -16 0 -28 -2 -28 -4z"/>
<path d="M12260 5960 c0 -5 6 -10 14 -10 8 0 18 5 21 10 3 6 -3 10 -14 10 -12
0 -21 -4 -21 -10z"/>
<path d="M11334 5948 c6 -19 -16 -21 -42 -4 -8 5 -12 3 -10 -6 2 -9 -12 -14
-49 -16 -29 -2 -53 -7 -53 -11 0 -11 -60 -12 -81 0 -12 6 -20 5 -24 -1 -4 -6
-3 -10 2 -9 19 3 36 -2 29 -8 -4 -5 -11 -8 -14 -9 -11 -1 -46 -15 -66 -25 -13
-8 -16 -7 -11 2 5 7 3 10 -6 7 -8 -3 -13 -10 -12 -16 3 -14 -25 -23 -62 -18
-26 3 -31 0 -33 -17 -1 -17 1 -19 8 -7 5 8 10 11 10 5 0 -5 5 -3 10 5 6 10 10
11 10 3 0 -7 -15 -20 -32 -29 -105 -54 -255 -223 -328 -370 -41 -82 -90 -251
-90 -310 0 -31 2 -33 43 -38 119 -15 116 -15 122 24 30 192 94 330 206 440 60
59 167 133 180 124 5 -3 9 -1 9 4 0 6 12 14 28 20 27 9 27 9 24 -29 -3 -25 0
-39 7 -39 7 0 11 6 10 13 -4 29 2 77 9 75 4 0 14 2 22 5 47 20 147 39 232 44
85 5 98 4 104 -11 7 -18 30 -22 36 -5 5 16 118 -16 198 -56 141 -71 245 -174
313 -311 119 -236 112 -498 -20 -718 -47 -78 -154 -217 -217 -281 -211 -214
-274 -332 -263 -493 3 -58 86 -448 112 -529 4 -13 165 24 165 38 0 5 -21 96
-46 202 -86 356 -67 460 121 659 125 132 150 162 214 247 66 89 138 230 165
320 69 234 21 508 -127 726 -87 127 -239 253 -381 313 -36 16 -63 32 -59 36 4
4 0 4 -10 0 -9 -3 -24 0 -33 7 -8 7 -36 14 -62 15 -26 1 -58 5 -72 9 -14 3
-57 6 -97 5 -59 -1 -73 2 -83 17 -10 16 -11 16 -6 1z"/>
<path d="M11030 5906 c0 -2 7 -9 15 -16 9 -7 15 -8 15 -2 0 5 -7 12 -15 16 -8
3 -15 4 -15 2z"/>
<path d="M12270 5840 c0 -5 7 -10 15 -10 8 0 15 5 15 10 0 6 -7 10 -15 10 -8
0 -15 -4 -15 -10z"/>
<path d="M10811 5824 c-7 -8 -11 -17 -9 -20 3 -2 13 5 23 16 10 11 14 20 9 20
-5 -1 -15 -8 -23 -16z"/>
<path d="M10611 5806 c-15 -17 -1 -28 19 -15 13 7 13 9 0 9 -13 0 -13 1 0 10
8 5 10 10 4 10 -6 0 -17 -6 -23 -14z"/>
<path d="M12335 5800 c-10 -11 -16 -22 -13 -25 3 -3 13 4 23 15 10 11 16 22
13 25 -3 3 -13 -4 -23 -15z"/>
<path d="M11961 5792 c-7 -13 -11 -26 -8 -28 8 -8 29 25 25 38 -3 8 -9 4 -17
-10z"/>
<path d="M10849 5783 c-13 -17 -13 -17 6 -3 11 8 22 16 24 17 2 2 0 3 -6 3 -6
0 -17 -8 -24 -17z"/>
<path d="M12260 5791 c0 -12 39 -25 48 -16 7 7 -17 25 -35 25 -7 0 -13 -4 -13
-9z"/>
<path d="M10726 5752 c-2 -4 4 -8 14 -8 10 0 16 4 14 8 -3 4 -9 8 -14 8 -5 0
-11 -4 -14 -8z"/>
<path d="M10495 5740 c-3 -5 -1 -10 4 -10 6 0 11 5 11 10 0 6 -2 10 -4 10 -3
0 -8 -4 -11 -10z"/>
<path d="M10526 5729 c-11 -10 -16 -22 -13 -26 4 -3 7 -1 7 5 0 7 7 12 15 12
8 0 15 7 15 15 0 18 -1 18 -24 -6z"/>
<path d="M11461 5734 c0 -11 3 -14 6 -6 3 7 2 16 -1 19 -3 4 -6 -2 -5 -13z"/>
<path d="M10177 5719 c7 -7 15 -10 18 -7 3 3 -2 9 -12 12 -14 6 -15 5 -6 -5z"/>
<path d="M10432 5705 c0 -16 2 -22 5 -12 2 9 2 23 0 30 -3 6 -5 -1 -5 -18z"/>
<path d="M10530 5695 c-9 -11 -10 -19 -3 -26 7 -7 14 -5 23 6 9 11 10 19 3 26
-7 7 -14 5 -23 -6z"/>
<path d="M11230 5575 c0 -78 14 -91 29 -29 13 50 8 79 -14 88 -12 4 -15 -7
-15 -59z"/>
<path d="M10581 5584 c0 -11 3 -14 6 -6 3 7 2 16 -1 19 -3 4 -6 -2 -5 -13z"/>
<path d="M11180 5530 c0 -13 28 -25 38 -16 3 4 0 11 -8 16 -20 13 -30 12 -30
0z"/>
<path d="M10298 5473 c7 -3 16 -2 19 1 4 3 -2 6 -13 5 -11 0 -14 -3 -6 -6z"/>
<path d="M11905 5411 c-3 -6 3 -15 14 -21 21 -11 37 2 26 20 -8 13 -32 13 -40
1z"/>
<path d="M11025 5359 c-4 -6 -5 -12 -2 -15 2 -3 7 2 10 11 7 17 1 20 -8 4z"/>
<path d="M11210 5358 c0 -17 18 -44 24 -37 8 7 -5 49 -15 49 -5 0 -9 -6 -9
-12z"/>
<path d="M11230 5220 c0 -5 5 -10 10 -10 6 0 10 5 10 10 0 6 -4 10 -10 10 -5
0 -10 -4 -10 -10z"/>
<path d="M10730 5210 c0 -5 5 -10 10 -10 6 0 10 5 10 10 0 6 -4 10 -10 10 -5
0 -10 -4 -10 -10z"/>
<path d="M10430 5170 c0 -5 5 -10 10 -10 6 0 10 5 10 10 0 6 -4 10 -10 10 -5
0 -10 -4 -10 -10z"/>
<path d="M12397 5123 c-2 -4 -1 -17 3 -28 7 -19 8 -19 15 -2 8 18 -9 46 -18
30z"/>
<path d="M12690 5119 c0 -5 5 -7 10 -4 6 3 10 8 10 11 0 2 -4 4 -10 4 -5 0
-10 -5 -10 -11z"/>
<path d="M11613 5074 c-3 -8 -1 -20 6 -27 13 -13 16 -10 25 21 6 16 3 22 -9
22 -8 0 -18 -7 -22 -16z"/>
<path d="M11765 5060 c-3 -5 -1 -10 4 -10 6 0 11 5 11 10 0 6 -2 10 -4 10 -3
0 -8 -4 -11 -10z"/>
<path d="M10230 5036 c0 -9 5 -16 10 -16 6 0 10 4 10 9 0 6 -4 13 -10 16 -5 3
-10 -1 -10 -9z"/>
<path d="M12535 5020 c-3 -5 -1 -10 4 -10 6 0 11 5 11 10 0 6 -2 10 -4 10 -3
0 -8 -4 -11 -10z"/>
<path d="M12460 4986 c0 -10 8 -16 22 -16 12 0 19 1 17 3 -2 1 -12 9 -21 16
-15 12 -18 11 -18 -3z"/>
<path d="M10570 4970 c0 -5 7 -10 16 -10 8 0 12 5 9 10 -3 6 -10 10 -16 10 -5
0 -9 -4 -9 -10z"/>
<path d="M10861 4854 c0 -11 3 -14 6 -6 3 7 2 16 -1 19 -3 4 -6 -2 -5 -13z"/>
<path d="M11370 4790 c0 -5 5 -10 10 -10 6 0 10 5 10 10 0 6 -4 10 -10 10 -5
0 -10 -4 -10 -10z"/>
<path d="M10720 4710 c0 -28 28 -37 48 -16 15 15 15 18 2 26 -26 17 -50 12
-50 -10z"/>
<path d="M11770 4515 c-7 -9 -10 -18 -7 -21 3 -3 10 4 17 15 13 25 8 27 -10 6z"/>
<path d="M10830 4460 c0 -5 5 -10 10 -10 6 0 10 5 10 10 0 6 -4 10 -10 10 -5
0 -10 -4 -10 -10z"/>
<path d="M11768 2960 c-87 -68 -68 -204 33 -244 47 -19 89 -14 130 15 30 21
59 75 59 110 0 37 -37 103 -69 122 -41 24 -121 23 -153 -3z"/>
<path d="M4495 3040 c-3 -5 -1 -10 4 -10 6 0 11 5 11 10 0 6 -2 10 -4 10 -3 0
-8 -4 -11 -10z"/>
<path d="M12990 1521 c0 -12 5 -21 10 -21 6 0 10 6 10 14 0 8 -4 18 -10 21 -5
3 -10 -3 -10 -14z"/>
<path d="M12866 1491 c-4 -7 -5 -15 -2 -18 9 -9 19 4 14 18 -4 11 -6 11 -12 0z"/>
<path d="M12940 1421 c0 -6 5 -13 10 -16 6 -3 10 1 10 9 0 9 -4 16 -10 16 -5
0 -10 -4 -10 -9z"/>
<path d="M13390 1160 c-25 -15 4 -36 32 -23 22 10 22 10 2 21 -12 6 -26 7 -34
2z"/>
<path d="M13368 1093 c6 -2 18 -2 25 0 6 3 1 5 -13 5 -14 0 -19 -2 -12 -5z"/>
<path d="M3982 1080 c0 -14 2 -19 5 -12 2 6 2 18 0 25 -3 6 -5 1 -5 -13z"/>
<path d="M6954 19933 c-46 -81 -78 -159 -99 -238 -22 -85 -20 -243 5 -339 47
-187 178 -355 337 -435 133 -66 204 -83 388 -88 184 -6 291 8 440 58 181 60
299 148 392 290 64 99 92 185 94 291 2 101 -12 151 -60 214 -115 153 -373 131
-464 -40 -31 -59 -32 -203 0 -261 45 -85 117 -125 225 -125 57 0 59 -1 53 -22
-25 -84 -159 -199 -283 -242 -72 -26 -195 -37 -275 -26 -223 32 -346 190 -378
482 -17 151 14 371 71 502 l19 46 -214 0 -214 0 -37 -67z"/>
<path d="M11534 19974 c-13 -51 5 -173 55 -389 29 -121 54 -225 56 -232 4 -13
165 24 165 38 0 5 -21 96 -46 202 -40 163 -47 208 -48 300 l-1 107 -87 0 c-86
0 -88 -1 -94 -26z"/>
<path d="M10830 19590 c0 -5 5 -10 11 -10 5 0 7 5 4 10 -3 6 -8 10 -11 10 -2
0 -4 -4 -4 -10z"/>
<path d="M7695 19430 c3 -5 11 -10 16 -10 6 0 7 5 4 10 -3 6 -11 10 -16 10 -6
0 -7 -4 -4 -10z"/>
<path d="M7980 19190 c0 -5 5 -10 10 -10 6 0 10 5 10 10 0 6 -4 10 -10 10 -5
0 -10 -4 -10 -10z"/>
<path d="M7762 19158 c-17 -17 -15 -58 3 -58 32 0 66 24 63 44 -4 25 -46 34
-66 14z"/>
<path d="M8575 19010 c-3 -5 -2 -10 4 -10 5 0 13 5 16 10 3 6 2 10 -4 10 -5 0
-13 -4 -16 -10z"/>
<path d="M11768 18960 c-87 -68 -68 -204 33 -244 47 -19 89 -14 130 15 30 21
59 75 59 110 0 37 -37 103 -69 122 -41 24 -121 23 -153 -3z"/>
<path d="M7870 18624 c0 -8 32 -33 42 -34 4 0 4 7 1 17 -5 12 -3 14 7 8 9 -5
11 -4 6 3 -7 12 -56 17 -56 6z"/>
<path d="M7358 18533 c7 -3 16 -2 19 1 4 3 -2 6 -13 5 -11 0 -14 -3 -6 -6z"/>
<path d="M6665 18500 c10 -11 20 -18 23 -15 7 6 -18 35 -31 35 -5 0 -2 -9 8
-20z"/>
<path d="M19992 18020 c0 -14 2 -19 5 -12 2 6 2 18 0 25 -3 6 -5 1 -5 -13z"/>
<path d="M94 15699 c0 -22 12 -25 19 -5 3 8 0 16 -6 19 -7 3 -13 -3 -13 -14z"/>
<path d="M130 15690 c0 -5 5 -10 11 -10 5 0 7 5 4 10 -3 6 -8 10 -11 10 -2 0
-4 -4 -4 -10z"/>
<path d="M40 15670 c11 -7 11 -10 2 -10 -7 0 -10 -5 -6 -12 5 -8 0 -9 -14 -6
l-22 6 0 -580 0 -579 27 19 c57 41 138 142 174 215 15 31 29 47 42 47 10 0 15
5 12 10 -4 6 -10 8 -14 6 -4 -3 2 30 14 72 45 155 41 324 -12 461 -14 36 -25
74 -26 83 -1 9 -4 15 -8 13 -9 -6 -50 71 -41 80 4 5 2 5 -4 2 -7 -4 -19 5 -29
19 -19 29 -37 47 -84 87 -18 15 -29 27 -25 27 4 0 17 -8 28 -17 21 -18 21 -18
3 3 -16 19 -16 23 -3 37 17 16 11 27 -13 27 -14 0 -14 -2 -1 -10z"/>
<path d="M133 15593 c4 -3 2 -11 -3 -18 -7 -8 -6 -12 3 -12 7 0 14 9 14 19 1
10 -3 18 -9 18 -6 0 -8 -3 -5 -7z"/>
<path d="M335 15040 c-3 -5 -1 -10 4 -10 6 0 11 5 11 10 0 6 -2 10 -4 10 -3 0
-8 -4 -11 -10z"/>
<path d="M236 14592 c-3 -5 1 -9 9 -9 8 0 12 4 9 9 -3 4 -7 8 -9 8 -2 0 -6 -4
-9 -8z"/>
<path d="M159 8674 c-53 -16 -131 -80 -149 -123 -8 -19 -11 -69 -8 -144 3
-109 5 -118 33 -159 53 -76 148 -105 269 -83 31 6 36 5 36 -11 -1 -82 -146
-248 -267 -305 l-73 -34 0 -62 c0 -61 1 -62 22 -54 326 125 517 363 522 646 1
117 -21 189 -81 255 -59 66 -112 90 -194 89 -35 0 -85 -7 -110 -15z"/>
<path d="M820 7821 c-14 -27 -13 -37 6 -55 20 -21 64 -21 64 -1 0 26 -29 75
-45 75 -8 0 -19 -9 -25 -19z"/>
<path d="M546 7714 c-4 -9 -4 -19 -2 -21 8 -8 26 8 26 23 0 19 -16 18 -24 -2z"/>
<path d="M19967 6788 c-99 -132 -138 -240 -144 -404 -5 -102 -2 -132 16 -199
25 -89 74 -189 126 -254 l35 -44 0 467 c0 256 -2 466 -4 466 -3 0 -16 -15 -29
-32z"/>
<path d="M19992 2020 c0 -14 2 -19 5 -12 2 6 2 18 0 25 -3 6 -5 1 -5 -13z"/>
<path d="M9278 1143 c7 -3 16 -2 19 1 4 3 -2 6 -13 5 -11 0 -14 -3 -6 -6z"/>
<path d="M9278 1003 c7 -3 16 -2 19 1 4 3 -2 6 -13 5 -11 0 -14 -3 -6 -6z"/>
<path d="M6870 579 c0 -5 5 -7 10 -4 6 3 10 8 10 11 0 2 -4 4 -10 4 -5 0 -10
-5 -10 -11z"/>
<path d="M7650 364 c0 -8 5 -12 10 -9 6 3 10 10 10 16 0 5 -4 9 -10 9 -5 0
-10 -7 -10 -16z"/>
<path d="M6855 300 c-140 -21 -273 -82 -359 -164 -50 -48 -96 -110 -96 -128 0
-5 108 -8 240 -8 150 0 240 4 240 10 0 5 -24 28 -52 51 -29 23 -54 45 -56 49
-2 4 19 18 45 31 43 22 61 24 178 24 110 0 139 -4 189 -22 62 -24 172 -91 201
-123 16 -18 32 -20 137 -20 76 0 117 4 113 10 -15 25 -204 146 -299 191 -163
78 -357 118 -481 99z"/>
<path d="M7625 90 c-3 -5 1 -10 9 -10 9 0 16 5 16 10 0 6 -4 10 -9 10 -6 0
-13 -4 -16 -10z"/>
</g>
</svg>
